RD,Chinese,,,,,Name Of Day,,Next Zhongqi,Old Hindu Solar,,,Hindu Solar,,,Old Hindu Lunar,,,,Hindu Lunar,,,,
,Cycle,Year,Month,Leap,Day,Stem,Branch,,Year,Month,Day,Year,Month,Day,Year,Month,Leap,Day,Year,Month,Leap,Day,Leap
-214193,35,11,6,f,12,2,10,-214191.634729,2515,5,19,-664,5,19,2515,6,f,11,-529,6,f,11,f
-61387,42,9,10,f,27,8,8,-61370.733038,2933,9,26,-246,9,26,2933,9,f,26,-111,9,f,27,f
25469,46,7,8,f,4,4,8,25498.215830,3171,7,11,-8,7,9,3171,8,f,3,127,8,f,3,f
49217,47,12,8,f,9,2,8,49239.006687,3236,7,17,57,7,16,3236,8,f,9,192,8,f,9,f
171307,52,46,11,f,20,2,10,171318.590237,3570,10,19,391,10,21,3570,11,t,19,526,11,f,19,f
210155,54,33,4,f,5,10,2,210156.746118,3677,2,28,498,2,31,3677,3,f,5,633,3,f,5,f
253427,56,31,10,f,15,2,2,253439.316510,3795,8,17,616,8,16,3795,9,f,15,751,9,f,15,f
369740,61,50,3,f,7,5,11,369767.417293,4114,1,26,935,1,28,4114,2,f,7,1070,2,f,6,f
400085,63,13,4,f,24,10,8,400113.935688,4197,2,24,1018,2,26,4197,2,f,24,1153,3,t,23,f
434355,64,47,2,f,9,10,6,434384.030321,4290,12,20,1111,12,23,4291,1,f,9,1247,1,f,8,f
452605,65,37,2,f,9,10,4,452615.453447,4340,12,7,1161,12,10,4340,12,f,9,1297,1,f,8,f
470160,66,25,2,f,23,5,3,470177.755730,4388,12,30,1210,1,2,4389,1,f,23,1345,1,f,22,f
473837,66,35,3,f,9,2,8,473861.320341,4399,1,24,1220,1,27,4399,2,f,8,1355,2,f,8,f
507850,68,8,5,f,2,5,1,507860.232802,4492,3,7,1313,3,8,4492,4,f,2,1448,4,f,1,f
524156,68,53,1,f,8,1,11,524172.834565,4536,10,28,1357,10,30,4536,11,f,7,1492,11,f,7,f
544676,69,49,3,f,4,1,11,544687.133715,4593,1,3,1414,1,5,4593,1,f,3,1549,2,t,3,f
567118,70,50,8,f,2,3,1,567122.834963,4654,6,12,1475,6,10,4654,7,f,2,1610,7,f,2,f
569477,70,57,1,f,29,2,8,569492.996118,4660,11,27,1481,11,29,4660,11,f,29,1616,11,f,28,t
601716,72,25,4,t,20,1,3,601727.342116,4749,3,1,1570,3,3,4749,3,f,20,1705,3,f,20,f
613424,72,57,6,f,5,9,11,613446.520888,4781,3,21,1602,3,22,4781,4,f,4,1737,4,f,4,f
626596,73,33,6,f,6,1,7,626626.467423,4817,4,13,1638,4,13,4817,5,f,6,1773,5,f,6,f
645554,74,25,5,f,5,9,5,645556.325334,4869,3,8,1690,3,10,4869,4,f,5,1825,4,f,5,f
664224,75,16,6,f,12,9,3,664246.376294,4920,4,20,1741,4,20,4920,5,f,12,1876,5,f,11,f
671401,75,36,2,f,13,6,4,671426.124336,4939,12,13,1760,12,16,4940,1,t,13,1896,1,f,13,f
694799,76,40,3,f,22,4,2,694801.614263,5004,1,4,1825,1,7,5004,1,f,23,1960,1,f,22,f
704424,77,6,7,f,21,9,3,704453.869488,5030,5,11,1851,5,10,5030,5,f,21,1986,5,f,20,f
708842,77,18,8,f,9,7,5,708867.143728,5042,6,15,1863,6,14,5042,7,f,9,1998,7,f,9,f
709409,77,20,3,f,15,4,8,709411.313395,5044,1,4,1865,1,7,5044,1,f,15,2000,1,f,14,f
709580,77,20,9,f,9,5,11,709597.630491,5044,6,23,1865,6,21,5044,7,f,9,2000,7,f,8,f
727274,78,9,2,f,14,9,5,727277.699907,5092,12,2,1913,12,4,5092,12,f,14,2048,12,f,14,f
728714,78,13,1,f,7,9,5,728738.668667,5096,11,11,1917,11,13,5096,12,f,7,2052,12,f,7,f
744313,78,55,10,f,14,8,4,744325.562389,5139,7,26,1960,7,24,5139,8,f,14,2095,8,f,14,f
764652,79,51,6,f,7,7,3,764656.564424,5195,4,2,2016,4,2,5195,4,f,6,2151,4,f,6,f
